Get geographical classifications of municipalities — classifications • swissmuni
…
The historicization number does not replace the existing municipality
and district numbers. It is used for the computer-aided mapping of the
various states and mutation processes of the official commune register
and the districts.

―

    Examples

swissmuni::classifications(start_date = lubridate::today(),
                           end_date = lubridate::today(),
                           name_type = "de",
                           use_cache = FALSE)
#> # A tibble: 2,148 × 23
#>    Identifier Name   CODE_OFS `Kanton (2019-…` `Historisierte…` `Agglomeration…`
#>         <int> <chr>     <int>            <int>            <int>            <int>
#>  1      10009 Villn…     4122               19            10023                0
#>  2      10078 Vionn…     6158               23            10013                0
#>  3      10157 Speic…     3023               15            10098             3203
#>  4      10159 Zwisc…     6011               23            10035             6002
#>  5      10162 Villa…     2228               10            10104             2196
#>  6      10165 Villa…     2230               10            10104             2196
#>  7      10242 Wila        181                1            10076                0
#>  8      10268 Wil (…       71                1            10081              261
#>  9      10275 Wetti…     4045               19            10025             4021
#> 10      10277 Wetzi…      121                1            10079              261
#> # … with 2,138 more rows, and 17 more variables:
#> #   `Agglomerationsgrössenklasse 2012` <int>, `Agglomerationen 2012 ⎘` <int>,
#> #   `Arbeitsmarktgrossregionen 2018` <int>, `Arbeitsmarktregionen 2018` <int>,
#> #   `Urbanisierungsgrad (DEGURBA) - eurostat 2011` <int>, `` <int>,
#> #   `NA ⎘` <int>, `Stadt/Land-Typologie` <int>,
#> #   `Gemeindetypologie 2012 (9 Typen)` <int>,
#> #   `Gemeindetypologie 2012 (25 Typen)` <int>, Berggebiete <int>, …
…
