Get municipality snapshots — snapshots • swissmuni
…
The historicization number does not replace the existing municipality
and district numbers. It is used for the computer-aided mapping of the
various states and mutation processes of the official commune register
and the districts.

―

    Examples

swissmuni::snapshots(historicized_code = TRUE)
#> # A tibble: 2,314 × 29
#>    Identifier ValidFrom  ValidTo Level Parent Name_en    Name_fr Name_de Name_it ABBRE…¹ ABBRE…² ABBRE…³ ABBRE…⁴ ABBRE…⁵ CODE_…⁶ CODE_…⁷ CODE_…⁸ CODE_…⁹ CODE_…˟
#>         <int> <date>     <date>  <int>  <int> <chr>      <chr>   <chr>   <chr>   <chr>   <chr>   <chr>   <chr>   <chr>   <chr>   <chr>   <chr>   <chr>   <chr>  
#>  1          1 1848-09-12 NA          1     NA Zürich     Zürich  Zürich  Zürich  ZH      ZH      ZH      ZH      ZH      1       1       1       1       1      
#>  2        101 1848-09-12 NA          2      1 Bezirk Af… Bezirk… Bezirk… Bezirk… Affolt… Affolt… Affolt… Affolt… Affolt… 10053   10053   10053   10053   10053  
#>  3         13 1848-09-12 NA          3    101 Stallikon  Stalli… Stalli… Stalli… NA      NA      NA      NA      NA      10575   10575   10575   10575   10575  
#>  4          2 1848-09-12 NA          3    101 Affoltern… Affolt… Affolt… Affolt… NA      NA      NA      NA      NA      11742   11742   11742   11742   11742  
#>  5          3 1848-09-12 NA          3    101 Bonstetten Bonste… Bonste… Bonste… NA      NA      NA      NA      NA      11801   11801   11801   11801   11801  
#>  6          4 1911-01-01 NA          3    101 Hausen am… Hausen… Hausen… Hausen… NA      NA      NA      NA      NA      11992   11992   11992   11992   11992  
#>  7          5 1848-09-12 NA          3    101 Hedingen   Heding… Heding… Heding… NA      NA      NA      NA      NA      12249   12249   12249   12249   12249  
#>  8          9 1848-09-12 NA          3    101 Mettmenst… Mettme… Mettme… Mettme… NA      NA      NA      NA      NA      12433   12433   12433   12433   12433  
#>  9         10 1848-09-12 NA          3    101 Obfelden   Obfeld… Obfeld… Obfeld… NA      NA      NA      NA      NA      12497   12497   12497   12497   12497  
#> 10          6 1911-01-01 NA          3    101 Kappel am… Kappel… Kappel… Kappel… NA      NA      NA      NA      NA      12671   12671   12671   12671   12671  
#> # … with 2,304 more rows, 10 more variables: INSCRIPTION_1_Text_en <chr>, INSCRIPTION_1_Text_fr <chr>, INSCRIPTION_1_Text_de <chr>,
#> #   INSCRIPTION_1_Text_it <chr>, INSCRIPTION_1_Text <chr>, REC_TYPE_1_Text_en <chr>, REC_TYPE_1_Text_fr <chr>, REC_TYPE_1_Text_de <chr>,
#> #   REC_TYPE_1_Text_it <chr>, REC_TYPE_1_Text <chr>, and abbreviated variable names ¹​ABBREV_1_Text_en, ²​ABBREV_1_Text_fr, ³​ABBREV_1_Text_de, ⁴​ABBREV_1_Text_it,
#> #   ⁵​ABBREV_1_Text, ⁶​CODE_HIST_1_Text_en, ⁷​CODE_HIST_1_Text_fr, ⁸​CODE_HIST_1_Text_de, ⁹​CODE_HIST_1_Text_it, ˟​CODE_HIST_1_Text
…
