Get spatial classifications of municipalities — classifications • swissmuni
…
The historicization number does not replace the existing municipality
and district numbers. It is used for the computer-aided mapping of the
various states and mutation processes of the official commune register
and the districts.

―

    Examples

swissmuni::classifications(start_date = lubridate::today(),
                           end_date = lubridate::today(),
                           name_type = "de",
                           use_cache = FALSE)
#> # A tibble: 2,115 × 34
#>    Identifier Name                CODE_OFS `Kantone (2025-01-01)` Historisiertes Bezirkve…¹ `Agglomerationen 2012` Urbanisierungsgrad 2…² `Stadt/Land-Typologie`
#>         <int> <chr>                  <int>                  <int>                     <int>                  <int>                  <int>                  <int>
#>  1      10009 Villnachern             4122                     19                     10023                      0                      2                      3
#>  2      10078 Vionnaz                 6158                     23                     10013                      0                      3                      2
#>  3      10157 Speicher                3023                     15                     10098                   3203                      2                      2
#>  4      10159 Zwischbergen            6011                     23                     10035                   6002                      3                      3
#>  5      10162 Villars-sur-Glâne       2228                     10                     10104                   2196                      2                      1
#>  6      10165 Villarsel-sur-Marly     2230                     10                     10104                   2196                      3                      3
#>  7      10242 Wila                     181                      1                     10076                      0                      3                      2
#>  8      10268 Wil (ZH)                  71                      1                     10081                    261                      3                      3
#>  9      10275 Wettingen               4045                     19                     10025                   4021                      2                      1
#> 10      10277 Wetzikon (ZH)            121                      1                     10079                    261                      2                      1
#> # ℹ 2,105 more rows
#> # ℹ abbreviated names: ¹​`Historisiertes Bezirkverzeichnis der Schweiz (2025-01-01)`, ²​`Urbanisierungsgrad 2011 (DEGURBA) - eurostat 2011`
#> # ℹ 26 more variables: `Gemeindetypologie (9 Typen)` <int>, `Gemeindetypologie (25 Typen)` <int>, `Grossregionen der Schweiz` <int>,
#> #   `Raum mit städtischem Charakter` <int>, `Statistische Städte` <int>, `Agglomerationsgrössenklasse 2012` <int>, `Agglomerationen 2012 ⎘` <int>,
#> #   `Arbeitsmarktgrossregionen 2018` <int>, `Arbeitsmarktregionen 2018` <int>, Berggebiete <int>, `Funktionale städtische Gebiete 2014 (FUA eurostat)` <int>,
#> #   `Erweiterte Städte 2011 (Greater cities eurostat)` <int>, `Sprachgebiete 2020` <int>, `Agglomerationen 2020` <int>, `Stadt/Land-Typologie ⎘` <int>,
#> #   `Gemeindetypologie (9 Typen) ⎘` <int>, `Gemeindetypologie (25 Typen) ⎘` <int>, `Raum mit städtischem Charakter ⎘` <int>, `Statistische Städte ⎘` <int>, …
…
