Get municipality snapshots — snapshots • swissmuni
…
The historicization number does not replace the existing municipality
and district numbers. It is used for the computer-aided mapping of the
various states and mutation processes of the official commune register
and the districts.

―

    Examples

swissmuni::snapshots(historicized_code = TRUE)
#> # A tibble: 2,300 × 29
#>    Identifier ValidFrom  ValidTo Level Parent Name_en            Name_fr     Name_de Name_it ABBREV_1_Text_en ABBREV_1_Text_fr ABBREV_1_Text_de ABBREV_1_Text_it
#>         <int> <date>     <date>  <int>  <int> <chr>              <chr>       <chr>   <chr>   <chr>            <chr>            <chr>            <chr>           
#>  1          1 1848-09-12 NA          1     NA Zürich             Zürich      Zürich  Zürich  ZH               ZH               ZH               ZH              
#>  2        101 1848-09-12 NA          2      1 Bezirk Affoltern   Bezirk Aff… Bezirk… Bezirk… Affoltern        Affoltern        Affoltern        Affoltern       
#>  3         13 1848-09-12 NA          3    101 Stallikon          Stallikon   Stalli… Stalli… NA               NA               NA               NA              
#>  4          2 1848-09-12 NA          3    101 Affoltern am Albis Affoltern … Affolt… Affolt… NA               NA               NA               NA              
#>  5          3 1848-09-12 NA          3    101 Bonstetten         Bonstetten  Bonste… Bonste… NA               NA               NA               NA              
#>  6          4 1911-01-01 NA          3    101 Hausen am Albis    Hausen am … Hausen… Hausen… NA               NA               NA               NA              
#>  7          5 1848-09-12 NA          3    101 Hedingen           Hedingen    Heding… Heding… NA               NA               NA               NA              
#>  8          9 1848-09-12 NA          3    101 Mettmenstetten     Mettmenste… Mettme… Mettme… NA               NA               NA               NA              
#>  9         10 1848-09-12 NA          3    101 Obfelden           Obfelden    Obfeld… Obfeld… NA               NA               NA               NA              
#> 10          6 1911-01-01 NA          3    101 Kappel am Albis    Kappel am … Kappel… Kappel… NA               NA               NA               NA              
#> # ℹ 2,290 more rows
#> # ℹ 16 more variables: ABBREV_1_Text <chr>, CODE_HIST_1_Text_en <chr>, CODE_HIST_1_Text_fr <chr>, CODE_HIST_1_Text_de <chr>, CODE_HIST_1_Text_it <chr>,
#> #   CODE_HIST_1_Text <chr>, INSCRIPTION_1_Text_en <chr>, INSCRIPTION_1_Text_fr <chr>, INSCRIPTION_1_Text_de <chr>, INSCRIPTION_1_Text_it <chr>,
#> #   INSCRIPTION_1_Text <chr>, REC_TYPE_1_Text_en <chr>, REC_TYPE_1_Text_fr <chr>, REC_TYPE_1_Text_de <chr>, REC_TYPE_1_Text_it <chr>, REC_TYPE_1_Text <chr>
…
